100 lap challenge. - Amrit's Blog
…
# Recombine the sections, then fix the pace
# and convert to single plottable number.
day1 <- 
  bind_rows(day1.1, day1.2, day1.3) %>%
  mutate(Avg.Pace = Time.Sec / 60 / Distance) %>%
  select(-Time.Min) %>% rename(Time = Time.Sec)

day1 %>% select(Date, everything())

## # A tibble: 50 x 10
##    Date        Laps  Time Distance Avg.HR Max.HR Cadence Kcals  Temp Avg.Pace
##    <chr>      <dbl> <dbl>    <dbl>  <int>  <int>   <int> <dbl> <dbl>    <dbl>
##  1 2020-03-24     1    41    0.075    133    142     143   6    91.4     9.11
##  2 2020-03-24     2    43    0.075    141    143     159   8    91.4     9.56
##  3 2020-03-24     3    40    0.075    142    146     159   7    91.4     8.89
##  4 2020-03-24     4    39    0.075    147    151     161   6    91.4     8.67
##  5 2020-03-24     5    38    0.075    149    152     161   6    91.4     8.44
##  6 2020-03-24     6    37    0.075    148    151     163   6    91.4     8.22
##  7 2020-03-24     7    36    0.075    147    149     164   6    91.4     8   
##  8 2020-03-24     8    37    0.075    148    151     163   6    91.4     8.22
##  9 2020-03-24     9    38    0.075    147    149     163   6    91.4     8.44
## 10 2020-03-24    10    38    0.075    156    163     163   6.5  91.4     8.44
## # … with 40 more rows
…
day2.2$Laps[2] <- 33

day2.3 <- 
  day2 %>%
  slice(33:n()) %>%
  mutate(Laps = Laps + 1)

day2 <- 
  bind_rows(day2.1, day2.2, day2.3) %>%
  mutate(Avg.Pace = Time.Sec / 60 / Distance) %>%
  select(-Time.Min) %>% rename(Time = Time.Sec)

day2 %>% select(Date, everything())

## # A tibble: 64 x 10
##    Date        Laps  Time Distance Avg.HR Max.HR Cadence Kcals  Temp Avg.Pace
##    <chr>      <dbl> <dbl>    <dbl>  <int>  <int>   <int> <dbl> <dbl>    <dbl>
##  1 2020-03-25     1    39    0.075    126    143     144     5  89.6     8.67
##  2 2020-03-25     2    41    0.075    144    147     162     7  89.6     9.11
##  3 2020-03-25     3    39    0.075    145    149     164     7  89.6     8.67
##  4 2020-03-25     4    39    0.075    147    149     164     7  89.6     8.67
##  5 2020-03-25     5    39    0.075    147    148     163     6  89.6     8.67
##  6 2020-03-25     6    39    0.075    146    148     163     7  89.6     8.67
##  7 2020-03-25     7    39    0.075    140    147     163     7  89.6     8.67
##  8 2020-03-25     8    39    0.075    138    140     163     7  89.6     8.67
##  9 2020-03-25     9    38    0.075    139    141     164     6  89.6     8.44
## 10 2020-03-25    10    39    0.075    141    143     164     7  89.6     8.67
## # … with 54 more rows

No lap messups fo Day 3! A much simpler data import process.

Day 3.

day3 <- getData("~/Downloads/Vadhana Running - 2020-03-27.csv") %>% mutate(Date = "2020-03-27")

day3 <- 
  day3 %>%
  mutate(Avg.Pace = Time.Sec / 60 / Distance) %>%
  select(-Time.Min) %>% rename(Time = Time.Sec)

day3 %>% select(Date, everything())

## # A tibble: 50 x 10
##    Date        Laps  Time Distance Avg.HR Max.HR Cadence Kcals  Temp Avg.Pace
##    <chr>      <dbl> <dbl>    <dbl>  <int>  <int>   <int> <int> <dbl>    <dbl>
##  1 2020-03-27     1    43    0.075    124    136     160     5  91.4     9.56
##  2 2020-03-27     2    42    0.075    138    142     162     6  93.2     9.33
##  3 2020-03-27     3    42    0.075    141    143     163     6  93.2     9.33
##  4 2020-03-27     4    42    0.075    143    147     162     7  93.2     9.33
##  5 2020-03-27     5    42    0.075    143    146     162     7  93.2     9.33
##  6 2020-03-27     6    42    0.075    146    152     162     7  93.2     9.33
##  7 2020-03-27     7    43    0.075    146    150     163     8  93.2     9.56
##  8 2020-03-27     8    40    0.075    145    147     162     7  93.2     8.89
##  9 2020-03-27     9    41    0.075    145    149     163     6  93.2     9.11
## 10 2020-03-27    10    39    0.075    144    148     164     6  93.2     8.67
## # … with 40 more rows
…
# Assign RHR.
# Based on previous 7 days read off of watch.
RHR <- 60

# Calculate RPI
# (from: https://fellrnr.com/wiki/Running_Economy).
runData <- 
  runData %>%
  mutate(RPI = 1 / (((Avg.HR - RHR) * (Time / 60)) / Distance) * 100000)

runData$Date <- as.Date(runData$Date)

runData %>% select(Date, everything())

## # A tibble: 164 x 11
##    Date        Laps  Time Distance Avg.HR Max.HR Cadence Kcals  Temp Avg.Pace
##    <date>     <dbl> <dbl>    <dbl>  <int>  <int>   <int> <dbl> <dbl>    <dbl>
##  1 2020-03-24     1    41    0.075    133    142     143   6    91.4     9.11
##  2 2020-03-24     2    43    0.075    141    143     159   8    91.4     9.56
##  3 2020-03-24     3    40    0.075    142    146     159   7    91.4     8.89
##  4 2020-03-24     4    39    0.075    147    151     161   6    91.4     8.67
##  5 2020-03-24     5    38    0.075    149    152     161   6    91.4     8.44
##  6 2020-03-24     6    37    0.075    148    151     163   6    91.4     8.22
##  7 2020-03-24     7    36    0.075    147    149     164   6    91.4     8   
##  8 2020-03-24     8    37    0.075    148    151     163   6    91.4     8.22
##  9 2020-03-24     9    38    0.075    147    149     163   6    91.4     8.44
## 10 2020-03-24    10    38    0.075    156    163     163   6.5  91.4     8.44
## # … with 154 more rows, and 1 more variable: RPI <dbl>
…
