Am I a Machine Learning Engineer yet? - Amrit's Blog
…
requirements <-
  mlTrack %>%
  group_by(type) %>%
  distinct(required)

Number of classes available to take online for the Machine Learning Specialization with specialization courses listed first.

mlTrack %>%
  filter(online == TRUE) %>%
  arrange(desc(type))

## # A tibble: 44 x 8
##    type   department courseID title         online foundational credits required
##    <chr>  <chr>      <chr>    <chr>         <lgl>  <lgl>          <int>    <int>
##  1 ML     CS         7641     Machine Lear… TRUE   TRUE               3        6
##  2 ML     CS         6515     Introduction… TRUE   FALSE              3        6
##  3 elect… CS         6476     Computer Vis… TRUE   TRUE               3        9
##  4 elect… CS         7646     Machine Lear… TRUE   TRUE               3        9
##  5 elect… CSE        6242     Data and Vis… TRUE   TRUE               3        9
##  6 elect… CS         7642     Reinforcemen… TRUE   FALSE              3        9
##  7 elect… CSE        6250     Big Data for… TRUE   FALSE              3        9
##  8 elect… ISYE       6420     Bayesian Met… TRUE   FALSE              3        9
##  9 core   CS         6035     Introduction… TRUE   TRUE               3       15
## 10 core   CS         6200     Introduction… TRUE   TRUE               3       15
## # … with 34 more rows
…
All of these classes seem really interesting and really provide exposure to a wide range of ML contexts so let’s include them all.

Core classes left that are available:

mlTrack %>%
  arrange(desc(type)) %>%
  filter(online == TRUE, type == "core") %>%
  select(-online, -credits, -required)

## # A tibble: 36 x 5
##    type  department courseID title                                  foundational
##    <chr> <chr>      <chr>    <chr>                                  <lgl>       
##  1 core  CS         6035     Introduction to Information Security   TRUE        
##  2 core  CS         6200     Introduction to Operating Systems (fo… TRUE        
##  3 core  CS         6210     Advanced Operating Systems             TRUE        
##  4 core  CS         6238     Secure Computer Systems (page coming … FALSE       
##  5 core  CS         6250     Computer Networks                      TRUE        
##  6 core  CS         6260     Applied Cryptography (page coming soo… FALSE       
##  7 core  CS         6262     Network Security                       TRUE        
##  8 core  CS         6263     Intro to Cyber Physical Systems Secur… TRUE        
##  9 core  CS         6265     Information Security Lab               FALSE       
## 10 core  CS         6290     High Performance Computer Architecture TRUE        
## # … with 26 more rows
…
