…
Working with a larger dataset

Searching from the same starting point in New Smyrna Beach, FL, but within a 3 mile box returning 800 results, fit a linear model.

## # A tibble: 800 x 11
##    address sell_price  beds baths home_size home_type year_built heating cooling
##    <chr>        <dbl> <dbl> <dbl>     <dbl> <chr>          <dbl> <list>  <list> 
##  1 679 Mi…     285000     3     2      1904 Single F…       1991 <chr [… <chr […
##  2 24 For…     180000     2     2      1124 Single F…       1978 <chr [… <chr […
##  3 620 Ba…     300000     2     2      1530 Single F…       1948 <chr [… <chr […
##  4 91 Hea…     260000     2     2       888 Condo           1986 <chr [… <chr […
##  5 17 Fai…     307000     3     2      2645 Single F…       1974 <chr [… <chr […
##  6 563 Ch…     102500     3     1      1214 Single F…       1940 <chr [… <chr […
##  7 706 Fo…     270000     3     2      1838 Single F…       1987 <chr [… <dbl […
##  8 101 N …     235000     2     2      1000 Single F…       1973 <chr [… <chr […
##  9 332 Pa…     180000     3     2      1258 Single F…       2020 <chr [… <chr […
## 10 695 Mi…     204900     2     2      1355 Single F…       1992 <chr [… <chr […
## # … with 790 more rows, and 2 more variables: parking <list>, lot_size <dbl>
…
Created a pre-processing recipe (smyrna_rec),

Bundled the model and recipe (smyrna_wflow), and

Trained our workflow using a single call to fit().

The next step is to use the trained workflow (smyrna_fit) to predict with the unseen test data, which we will do with a single call to predict(). The predict() method applies the recipe to the new data, then passes them to the fitted model.

smyrna_pred <- 
  predict(smyrna_fit, test_data) %>%
  bind_cols(test_data %>% select(sell_price, beds, baths, home_size))

smyrna_pred

## # A tibble: 109 x 5
##      .pred sell_price  beds baths home_size
##      <dbl>      <dbl> <dbl> <dbl>     <dbl>
##  1 183573.     180000     2     2      1124
##  2 225640.     270000     3     2      1838
##  3 202140.     180000     3     2      1258
##  4 330313.     715000     4     4      2380
##  5 170477.     125000     2     2       810
##  6 190588.     218500     2     2      1290
##  7 198515.     227000     2     2      1468
##  8 139182.     169900     2     1       963
##  9 132655.     125900     2     1       804
## 10 299311.     535000     5     3      2245
## # … with 99 more rows
…
smyrna_rf_pred <- 
  predict(smyrna_rf_fit, test_data) %>%
  bind_cols(test_data %>% select(sell_price, beds, baths, home_size))

smyrna_rf_pred

## # A tibble: 109 x 5
##      .pred sell_price  beds baths home_size
##      <dbl>      <dbl> <dbl> <dbl>     <dbl>
##  1 152816.     180000     2     2      1124
##  2 214435.     270000     3     2      1838
##  3 209350.     180000     3     2      1258
##  4 348550.     715000     4     4      2380
##  5 145537.     125000     2     2       810
##  6 189050.     218500     2     2      1290
##  7 185739.     227000     2     2      1468
##  8 180856.     169900     2     1       963
##  9 181623.     125900     2     1       804
## 10 348442.     535000     5     3      2245
## # … with 99 more rows
…
